Client name,Unique ID,Address,Mother's Maiden Name,Superannuation account 1,Active 1,Superannuation account 2,Active 2,Superannuation account 3,Active 3
Mickey Mouse,88888888,1 Disney Rd Melbourne ,Rodent,"150,000",Y,"12,000",Y,"1,000",N
Donald Duck,777777771,2 Puddle Lane Sydney,Goose,"2,000",Y,"26,000",N,"1,000,000",Y
Mickey Mouse,99999999,3 Forest Court Adeliade,Panda,"500,000",Y,"30,000",N,"56,000",N
Princess Fiona,11111111,4 Castle Hill Perth,Queen,"26,500",N,"1,000",N,"2,000",Y
Buzz Lightyear,55555555,5 Planet Place Brisbane,Blackmonth,"110,000",Y,N/A,,N/A,
Freddie Kruger,66666666,6 Horror Rd Darwin,King,"222,000",Y,"15,000",Y,"6,100",Y
Tinker Bell,33333333,7 Never Lane Hobart,Harp,600,N,"18,000",Y,500,N
Peter Pan,444444444,8 Ship St Canberra,Kettle,"1,200",N,"14,000",Y,"7,500",Y
Captain Hook,55555555,9 Crocodile Rd Melbourne ,Clock,500,N,400,N,800,N
Minnie Mouse,22222222,1 Disney Rd Melbourne ,Cat,"150,000",Y,N/A,,N/A,
